[
  {
    "keyword": "Feature",
    "name": "This feature file describes Patient Reports to the Dayamed Portal - Admin",
    "line": 1,
    "id": "this-feature-file-describes-patient-reports-to-the-dayamed-portal---admin",
    "tags": [],
    "uri": "features\\Admin_FeatureFiles\\patientReports.feature",
    "elements": [
      {
        "id": "this-feature-file-describes-patient-reports-to-the-dayamed-portal---admin;navigate-to-the-patient-reports-and-click-on-note-and-treatement-then-verify-the-popup",
        "keyword": "Scenario",
        "line": 3,
        "name": "Navigate to the patient reports and click on note and Treatement then verify the popup",
        "tags": [],
        "type": "scenario",
        "steps": [
          {
            "arguments": [],
            "keyword": "Given ",
            "line": 4,
            "name": "navigate to the QA Dayamed web portal",
            "match": {
              "location": "stepsDefinitions\\Admin_Module\\AddProvider.ts:14"
            },
            "result": {
              "status": "passed",
              "duration": 26614000000
            }
          },
          {
            "arguments": [],
            "keyword": "When ",
            "line": 5,
            "name": "Enter provider and Click on view patient",
            "match": {
              "location": "stepsDefinitions\\Admin_Module\\PatientReports.ts:20"
            },
            "result": {
              "status": "passed",
              "duration": 5246000000
            }
          },
          {
            "arguments": [],
            "keyword": "And ",
            "line": 6,
            "name": "select patient and verify the reports page",
            "match": {
              "location": "stepsDefinitions\\Admin_Module\\PatientReports.ts:26"
            },
            "result": {
              "status": "passed",
              "duration": 40370000000
            }
          },
          {
            "arguments": [],
            "keyword": "Then ",
            "line": 7,
            "name": "click on note and treatement then verify the popup",
            "match": {
              "location": "stepsDefinitions\\Admin_Module\\PatientReports.ts:36"
            },
            "result": {
              "status": "failed",
              "duration": 5951000000,
              "error_message": "NoSuchElementError: No element found using locator: By(xpath, //mat-dialog-container[@role=\"dialog\"])\n    at C:\\Users\\sahithya.sankoji\\Documents\\Dayamed_web\\appiumdayamed\\node_modules\\protractor\\built\\element.js:814:27\n    at ManagedPromise.invokeCallback_ (C:\\Users\\sahithya.sankoji\\Documents\\Dayamed_web\\appiumdayamed\\node_modules\\selenium-webdriver\\lib\\promise.js:1376:14)\n    at TaskQueue.execute_ (C:\\Users\\sahithya.sankoji\\Documents\\Dayamed_web\\appiumdayamed\\node_modules\\selenium-webdriver\\lib\\promise.js:3084:14)\n    at TaskQueue.executeNext_ (C:\\Users\\sahithya.sankoji\\Documents\\Dayamed_web\\appiumdayamed\\node_modules\\selenium-webdriver\\lib\\promise.js:3067:27)\n    at C:\\Users\\sahithya.sankoji\\Documents\\Dayamed_web\\appiumdayamed\\node_modules\\selenium-webdriver\\lib\\promise.js:2927:27\n    at C:\\Users\\sahithya.sankoji\\Documents\\Dayamed_web\\appiumdayamed\\node_modules\\selenium-webdriver\\lib\\promise.js:668:7\n    at processTicksAndRejections (internal/process/task_queues.js:93:5)Error\n    at ElementArrayFinder.applyAction_ (C:\\Users\\sahithya.sankoji\\Documents\\Dayamed_web\\appiumdayamed\\node_modules\\protractor\\built\\element.js:459:27)\n    at ElementArrayFinder.<computed> [as isDisplayed] (C:\\Users\\sahithya.sankoji\\Documents\\Dayamed_web\\appiumdayamed\\node_modules\\protractor\\built\\element.js:91:29)\n    at ElementFinder.<computed> [as isDisplayed] (C:\\Users\\sahithya.sankoji\\Documents\\Dayamed_web\\appiumdayamed\\node_modules\\protractor\\built\\element.js:831:22)\n    at World.<anonymous> (C:\\Users\\sahithya.sankoji\\Documents\\Dayamed_web\\appiumdayamed\\stepsDefinitions\\Admin_Module\\PatientReports.ts:42:32)\n    at Generator.next (<anonymous>)\n    at fulfilled (C:\\Users\\sahithya.sankoji\\Documents\\Dayamed_web\\appiumdayamed\\Output\\stepsDefinitions\\Admin_Module\\PatientReports.js:5:58)"
            }
          },
          {
            "keyword": "After",
            "hidden": true,
            "match": {
              "location": "node_modules\\protractor-cucumber-framework\\lib\\resultsCapturer.js:27"
            },
            "result": {
              "status": "passed",
              "duration": 1000000
            }
          }
        ]
      },
      {
        "id": "this-feature-file-describes-patient-reports-to-the-dayamed-portal---admin;click-on-location-card-then-verify-the-popup",
        "keyword": "Scenario",
        "line": 9,
        "name": "click on location card then verify the popup",
        "tags": [],
        "type": "scenario",
        "steps": [
          {
            "arguments": [],
            "keyword": "When ",
            "line": 10,
            "name": "I'm on reward page click on location and verify the popup",
            "match": {
              "location": "stepsDefinitions\\Admin_Module\\PatientReports.ts:50"
            },
            "result": {
              "status": "failed",
              "duration": 5156000000,
              "error_message": "NoSuchElementError: No element found using locator: By(xpath, //div[@class=\"postion-relative\"])\n    at C:\\Users\\sahithya.sankoji\\Documents\\Dayamed_web\\appiumdayamed\\node_modules\\protractor\\built\\element.js:814:27\n    at ManagedPromise.invokeCallback_ (C:\\Users\\sahithya.sankoji\\Documents\\Dayamed_web\\appiumdayamed\\node_modules\\selenium-webdriver\\lib\\promise.js:1376:14)\n    at TaskQueue.execute_ (C:\\Users\\sahithya.sankoji\\Documents\\Dayamed_web\\appiumdayamed\\node_modules\\selenium-webdriver\\lib\\promise.js:3084:14)\n    at TaskQueue.executeNext_ (C:\\Users\\sahithya.sankoji\\Documents\\Dayamed_web\\appiumdayamed\\node_modules\\selenium-webdriver\\lib\\promise.js:3067:27)\n    at C:\\Users\\sahithya.sankoji\\Documents\\Dayamed_web\\appiumdayamed\\node_modules\\selenium-webdriver\\lib\\promise.js:2927:27\n    at C:\\Users\\sahithya.sankoji\\Documents\\Dayamed_web\\appiumdayamed\\node_modules\\selenium-webdriver\\lib\\promise.js:668:7\n    at processTicksAndRejections (internal/process/task_queues.js:93:5)Error\n    at ElementArrayFinder.applyAction_ (C:\\Users\\sahithya.sankoji\\Documents\\Dayamed_web\\appiumdayamed\\node_modules\\protractor\\built\\element.js:459:27)\n    at ElementArrayFinder.<computed> [as isDisplayed] (C:\\Users\\sahithya.sankoji\\Documents\\Dayamed_web\\appiumdayamed\\node_modules\\protractor\\built\\element.js:91:29)\n    at ElementFinder.<computed> [as isDisplayed] (C:\\Users\\sahithya.sankoji\\Documents\\Dayamed_web\\appiumdayamed\\node_modules\\protractor\\built\\element.js:831:22)\n    at World.<anonymous> (C:\\Users\\sahithya.sankoji\\Documents\\Dayamed_web\\appiumdayamed\\stepsDefinitions\\Admin_Module\\PatientReports.ts:54:35)\n    at Generator.next (<anonymous>)\n    at fulfilled (C:\\Users\\sahithya.sankoji\\Documents\\Dayamed_web\\appiumdayamed\\Output\\stepsDefinitions\\Admin_Module\\PatientReports.js:5:58)"
            }
          },
          {
            "keyword": "After",
            "hidden": true,
            "match": {
              "location": "node_modules\\protractor-cucumber-framework\\lib\\resultsCapturer.js:27"
            },
            "result": {
              "status": "passed",
              "duration": 1000000
            }
          }
        ]
      }
    ]
  }
]