[
  {
    "keyword": "Feature",
    "name": "This feature file describes Patients list to the Dayamed Portal - Admin",
    "line": 1,
    "id": "this-feature-file-describes-patients-list-to-the-dayamed-portal---admin",
    "tags": [],
    "uri": "features\\Admin_FeatureFiles\\patients.feature",
    "elements": [
      {
        "id": "this-feature-file-describes-patients-list-to-the-dayamed-portal---admin;navigate-to-the-patient-edit-page-and-add-physician-with-blanck-data-in-all-fields",
        "keyword": "Scenario",
        "line": 33,
        "name": "Navigate to the patient edit page and add physician with blanck data in all fields",
        "tags": [
          {
            "name": "@TC_07",
            "line": 32
          }
        ],
        "type": "scenario",
        "steps": [
          {
            "arguments": [],
            "keyword": "Given ",
            "line": 34,
            "name": "navigate to the QA Dayamed web portal",
            "match": {
              "location": "stepsDefinitions\\Admin_Module\\AddProvider.ts:14"
            },
            "result": {
              "status": "passed",
              "duration": 26351000000
            }
          },
          {
            "arguments": [],
            "keyword": "When ",
            "line": 35,
            "name": "Click on view patient under any provider",
            "match": {
              "location": "stepsDefinitions\\Admin_Module\\Patients.ts:21"
            },
            "result": {
              "status": "passed",
              "duration": 5229000000
            }
          },
          {
            "arguments": [],
            "keyword": "Then ",
            "line": 36,
            "name": "I'm on edit patient page click on add physician and click on submit without entering any data",
            "match": {
              "location": "stepsDefinitions\\Admin_Module\\Patients.ts:283"
            },
            "result": {
              "status": "passed",
              "duration": 27870000000
            }
          },
          {
            "arguments": [],
            "keyword": "And ",
            "line": 37,
            "name": "verify the error messages on add physician page",
            "match": {
              "location": "stepsDefinitions\\Admin_Module\\Patients.ts:294"
            },
            "result": {
              "status": "passed",
              "duration": 299000000
            }
          },
          {
            "keyword": "After",
            "hidden": true,
            "match": {
              "location": "node_modules\\protractor-cucumber-framework\\lib\\resultsCapturer.js:27"
            },
            "result": {
              "status": "passed",
              "duration": 1000000
            }
          }
        ]
      },
      {
        "id": "this-feature-file-describes-patients-list-to-the-dayamed-portal---admin;enter-invalid-data-in-all-fields-of-add-physician-then-and-on-submit",
        "keyword": "Scenario",
        "line": 40,
        "name": "Enter invalid data in all fields of add physician then and on submit",
        "tags": [
          {
            "name": "@TC_08",
            "line": 39
          }
        ],
        "type": "scenario",
        "steps": [
          {
            "arguments": [],
            "keyword": "When ",
            "line": 41,
            "name": "I'm on edit patient page click on add physician, enter invalid data in all fields then verify the error messages",
            "match": {
              "location": "stepsDefinitions\\Admin_Module\\Patients.ts:305"
            },
            "result": {
              "status": "passed",
              "duration": 4285000000
            }
          },
          {
            "keyword": "After",
            "hidden": true,
            "match": {
              "location": "node_modules\\protractor-cucumber-framework\\lib\\resultsCapturer.js:27"
            },
            "result": {
              "status": "passed",
              "duration": 1000000
            }
          }
        ]
      },
      {
        "id": "this-feature-file-describes-patients-list-to-the-dayamed-portal---admin;add-physicia-with-valid-data-in-all-fields",
        "keyword": "Scenario",
        "line": 44,
        "name": "Add physicia with valid data in all fields",
        "tags": [
          {
            "name": "@TC_09",
            "line": 43
          }
        ],
        "type": "scenario",
        "steps": [
          {
            "arguments": [],
            "keyword": "When ",
            "line": 45,
            "name": "I'm on add physician page enter the valid data in all the fields and click on submit then verify the success message",
            "match": {
              "location": "stepsDefinitions\\Admin_Module\\Patients.ts:337"
            },
            "result": {
              "status": "passed",
              "duration": 10954000000
            }
          },
          {
            "keyword": "After",
            "hidden": true,
            "match": {
              "location": "node_modules\\protractor-cucumber-framework\\lib\\resultsCapturer.js:27"
            },
            "result": {
              "status": "passed",
              "duration": 0
            }
          }
        ]
      },
      {
        "id": "this-feature-file-describes-patients-list-to-the-dayamed-portal---admin;enter-valid-data-in-required-fields-of-add-physician-then-click-on-sumbit",
        "keyword": "Scenario",
        "line": 48,
        "name": "Enter valid data in required fields of add physician then click on sumbit",
        "tags": [
          {
            "name": "@TC_10",
            "line": 47
          }
        ],
        "type": "scenario",
        "steps": [
          {
            "arguments": [],
            "keyword": "When ",
            "line": 49,
            "name": "I'm on add physician page enter the valid data in required fields and click on submit then verify the success message",
            "match": {
              "location": "stepsDefinitions\\Admin_Module\\Patients.ts:367"
            },
            "result": {
              "status": "passed",
              "duration": 7939000000
            }
          },
          {
            "keyword": "After",
            "hidden": true,
            "match": {
              "location": "node_modules\\protractor-cucumber-framework\\lib\\resultsCapturer.js:27"
            },
            "result": {
              "status": "passed",
              "duration": 1000000
            }
          }
        ]
      }
    ],
    "metadata": {
      "browser": {
        "name": "chrome",
        "version": "95.0.4638.69"
      },
      "device": "",
      "platform": {
        "name": "",
        "version": ""
      }
    }
  }
]
