[
  {
    "keyword": "Feature",
    "name": "This feature file describes Forgot Password page to the Dayamed Portal - Admin",
    "line": 1,
    "id": "this-feature-file-describes-forgot-password-page-to-the-dayamed-portal---admin",
    "tags": [],
    "uri": "features\\Admin_FeatureFiles\\ForgotPasswordPage.feature",
    "elements": [
      {
        "id": "this-feature-file-describes-forgot-password-page-to-the-dayamed-portal---admin;reset-password-with-invalid-email-and-verify-the-error-messages",
        "keyword": "Scenario",
        "line": 4,
        "name": "Reset password with Invalid Email and verify the error messages",
        "tags": [
          {
            "name": "@Invalid_Email",
            "line": 3
          }
        ],
        "type": "scenario",
        "steps": [
          {
            "arguments": [],
            "keyword": "Given ",
            "line": 5,
            "name": "I navigate to the Dayamed QA web portal",
            "match": {
              "location": "stepsDefinitions\\Admin_Module\\ForgotPassword.ts:12"
            },
            "result": {
              "status": "passed",
              "duration": 16523000000
            }
          },
          {
            "arguments": [],
            "keyword": "When ",
            "line": 6,
            "name": "verify the all fields on the page",
            "match": {
              "location": "stepsDefinitions\\Admin_Module\\ForgotPassword.ts:28"
            },
            "result": {
              "status": "passed",
              "duration": 5365000000
            }
          },
          {
            "arguments": [],
            "keyword": "Then ",
            "line": 7,
            "name": "Enter the invalid Email and click on submit then verify the error messages",
            "match": {
              "location": "stepsDefinitions\\Admin_Module\\ForgotPassword.ts:46"
            },
            "result": {
              "status": "passed",
              "duration": 19244000000
            }
          },
          {
            "keyword": "After",
            "hidden": true,
            "match": {
              "location": "node_modules\\protractor-cucumber-framework\\lib\\resultsCapturer.js:27"
            },
            "result": {
              "status": "passed",
              "duration": 2000000
            }
          }
        ]
      }
    ],
    "metadata": {
      "browser": {
        "name": "chrome",
        "version": "94.0.4606.81"
      },
      "device": "",
      "platform": {
        "name": "",
        "version": ""
      }
    }
  }
]
