[
  {
    "keyword": "Feature",
    "name": "This feature file describes Login to the Dayamed Portal - Admin",
    "line": 1,
    "id": "this-feature-file-describes-login-to-the-dayamed-portal---admin",
    "tags": [],
    "uri": "features\\Admin_FeatureFiles\\login.feature",
    "elements": [
      {
        "id": "this-feature-file-describes-login-to-the-dayamed-portal---admin;login-with-the-invalid-credendential-then-verify-the-page",
        "keyword": "Scenario",
        "line": 4,
        "name": "login with the invalid credendential then verify the page",
        "tags": [
          {
            "name": "@login_invalid",
            "line": 3
          }
        ],
        "type": "scenario",
        "steps": [
          {
            "arguments": [],
            "keyword": "Given ",
            "line": 5,
            "name": "I navigate to the Dayamed QA portal",
            "match": {
              "location": "stepsDefinitions\\Admin_Module\\Login.ts:11"
            },
            "result": {
              "status": "passed",
              "duration": 13759000000
            }
          },
          {
            "arguments": [],
            "keyword": "When ",
            "line": 6,
            "name": "I'm on login page verify the fileds",
            "match": {
              "location": "stepsDefinitions\\Admin_Module\\Login.ts:27"
            },
            "result": {
              "status": "passed",
              "duration": 5149000000
            }
          },
          {
            "arguments": [],
            "keyword": "Then ",
            "line": 7,
            "name": "enter the invalid credentials,click on login and verify the error messages",
            "match": {
              "location": "stepsDefinitions\\Admin_Module\\Login.ts:43"
            },
            "result": {
              "status": "passed",
              "duration": 85131000000
            }
          },
          {
            "keyword": "After",
            "hidden": true,
            "match": {
              "location": "node_modules\\protractor-cucumber-framework\\lib\\resultsCapturer.js:27"
            },
            "result": {
              "status": "passed",
              "duration": 1000000
            }
          }
        ]
      },
      {
        "id": "this-feature-file-describes-login-to-the-dayamed-portal---admin;login-with-the-valid-credendential-then-verify-the-page",
        "keyword": "Scenario",
        "line": 10,
        "name": "login with the valid credendential then verify the page",
        "tags": [
          {
            "name": "@login_valid",
            "line": 9
          }
        ],
        "type": "scenario",
        "steps": [
          {
            "arguments": [],
            "keyword": "Given ",
            "line": 11,
            "name": "I navigate to the Dayamed QA portal",
            "match": {
              "location": "stepsDefinitions\\Admin_Module\\Login.ts:11"
            },
            "result": {
              "status": "passed",
              "duration": 9405000000
            }
          },
          {
            "arguments": [],
            "keyword": "When ",
            "line": 12,
            "name": "I'm on login page verify the fileds",
            "match": {
              "location": "stepsDefinitions\\Admin_Module\\Login.ts:27"
            },
            "result": {
              "status": "passed",
              "duration": 5404000000
            }
          },
          {
            "arguments": [],
            "keyword": "Then ",
            "line": 13,
            "name": "enter valid credentials and click on login then verify the homepage",
            "match": {
              "location": "stepsDefinitions\\Admin_Module\\Login.ts:103"
            },
            "result": {
              "status": "passed",
              "duration": 5295000000
            }
          },
          {
            "keyword": "After",
            "hidden": true,
            "match": {
              "location": "node_modules\\protractor-cucumber-framework\\lib\\resultsCapturer.js:27"
            },
            "result": {
              "status": "passed",
              "duration": 1000000
            }
          }
        ]
      },
      {
        "id": "this-feature-file-describes-login-to-the-dayamed-portal---admin;enter-the-password-and-verify-the-the-visibity-when-icon-visibility-on-and-off",
        "keyword": "Scenario",
        "line": 15,
        "name": "enter the password and verify the the visibity when icon visibility On and Off",
        "tags": [
          {
            "name": "@password_visibility_icon",
            "line": 14
          }
        ],
        "type": "scenario",
        "steps": [
          {
            "arguments": [],
            "keyword": "Given ",
            "line": 16,
            "name": "I navigate to the Dayamed QA portal",
            "match": {
              "location": "stepsDefinitions\\Admin_Module\\Login.ts:11"
            },
            "result": {
              "status": "passed",
              "duration": 9838000000
            }
          },
          {
            "arguments": [],
            "keyword": "When ",
            "line": 17,
            "name": "enter the password and verify the password visibily icon functionality.",
            "match": {
              "location": "stepsDefinitions\\Admin_Module\\Login.ts:113"
            },
            "result": {
              "status": "passed",
              "duration": 196000000
            }
          },
          {
            "keyword": "After",
            "hidden": true,
            "match": {
              "location": "node_modules\\protractor-cucumber-framework\\lib\\resultsCapturer.js:27"
            },
            "result": {
              "status": "passed",
              "duration": 1000000
            }
          }
        ]
      },
      {
        "id": "this-feature-file-describes-login-to-the-dayamed-portal---admin;verify-forgotpassword-link",
        "keyword": "Scenario",
        "line": 19,
        "name": "verify forgotpassword link",
        "tags": [
          {
            "name": "@forgot_password",
            "line": 18
          }
        ],
        "type": "scenario",
        "steps": [
          {
            "arguments": [],
            "keyword": "Given ",
            "line": 20,
            "name": "I navigate to the Dayamed QA portal",
            "match": {
              "location": "stepsDefinitions\\Admin_Module\\Login.ts:11"
            },
            "result": {
              "status": "passed",
              "duration": 5426000000
            }
          },
          {
            "arguments": [],
            "keyword": "When ",
            "line": 21,
            "name": "Click on forgot password link and verify the page title.",
            "match": {
              "location": "stepsDefinitions\\Admin_Module\\Login.ts:120"
            },
            "result": {
              "status": "passed",
              "duration": 88000000
            }
          },
          {
            "keyword": "After",
            "hidden": true,
            "match": {
              "location": "node_modules\\protractor-cucumber-framework\\lib\\resultsCapturer.js:27"
            },
            "result": {
              "status": "passed",
              "duration": 0
            }
          }
        ]
      }
    ],
    "metadata": {
      "browser": {
        "name": "chrome",
        "version": "94.0.4606.81"
      },
      "device": "",
      "platform": {
        "name": "",
        "version": ""
      }
    }
  }
]
