[
  {
    "keyword": "Feature",
    "name": "This feature file describes home page to the Dayamed Portal - Admin",
    "line": 1,
    "id": "this-feature-file-describes-home-page-to-the-dayamed-portal---admin",
    "tags": [],
    "uri": "features\\Admin_FeatureFiles\\homePage.feature",
    "elements": [
      {
        "id": "this-feature-file-describes-home-page-to-the-dayamed-portal---admin;click-on-load-more-providers-and-verify-the-count-displayed",
        "keyword": "Scenario",
        "line": 12,
        "name": "Click on Load more Providers and verify the count displayed",
        "tags": [
          {
            "name": "@LoadMore_Providers",
            "line": 11
          }
        ],
        "type": "scenario",
        "steps": [
          {
            "arguments": [],
            "keyword": "Given ",
            "line": 13,
            "name": "Navigate to the Dayamed QA portal",
            "match": {
              "location": "stepsDefinitions\\Admin_Module\\HomePage.ts:16"
            },
            "result": {
              "status": "passed",
              "duration": 29143000000
            }
          },
          {
            "arguments": [],
            "keyword": "When ",
            "line": 14,
            "name": "click on load more Providers then verify the count",
            "match": {
              "location": "stepsDefinitions\\Admin_Module\\HomePage.ts:156"
            },
            "result": {
              "status": "failed",
              "duration": 81291000000,
              "error_message": "AssertionError\n    + expected - actual\n\n    -82\n    +90\n\n    at World.<anonymous> (C:\\Users\\sahithya.sankoji\\Documents\\Dayamed_web\\appiumdayamed\\stepsDefinitions\\Admin_Module\\HomePage.ts:174:57)\n    at Generator.next (<anonymous>)\n    at fulfilled (C:\\Users\\sahithya.sankoji\\Documents\\Dayamed_web\\appiumdayamed\\Output\\stepsDefinitions\\Admin_Module\\HomePage.js:5:58)\n    at processTicksAndRejections (internal/process/task_queues.js:93:5)"
            }
          },
          {
            "keyword": "After",
            "hidden": true,
            "match": {
              "location": "node_modules\\protractor-cucumber-framework\\lib\\resultsCapturer.js:27"
            },
            "result": {
              "status": "passed",
              "duration": 1000000
            }
          }
        ]
      }
    ],
    "metadata": {
      "browser": {
        "name": "chrome",
        "version": "95.0.4638.69"
      },
      "device": "",
      "platform": {
        "name": "",
        "version": ""
      }
    }
  }
]
