{
    "page_Title": "Edit Provider | Dayamed",
    "img_path": "C:/Users/sahithya.sankoji/Downloads/flower.jpg",
    "succsess_msg": "Provider data has been saved successfully",
    "providerName": "priya",
    "error_Msg": {
        "fname_error": "Please enter valid First Name.",
        "lname_error": "Please enter valid Last Name.",
        "mobileNum_error": "Please enter Mobile Number..",
        "address_error": "Please enter valid Address.",
        "zipcode_error": "Please enter valid Zip Code.",
        "licence_error": "Please enter Licence."
    },
    "invalid_ErrorMsg": {
        "fname_error": "Please enter valid First Name.",
        "lname_error": "Please enter valid Last Name.",
        "nickName_errorMsg": "Please enter valid Nick Name",
        "city_errorMsg": "Please enter valid City.",
        "StateError_msg": "Please enter valid State.",
        "countryErrorMsg": "Please enter valid Country.",
        "address_error": "Please enter valid Address.",
        "zipcode_error": "Please enter valid Zip Code.",
        "mobileNum_error": "Please enter a valid Mobile Number."
    },
    "valid": {
        "first_name": "priya",
        "last_name": "Reddy",
        "nick_name": "vasu",
        "dob": "24/8/1998",
        "gender": "male",
        "mobile_number": "9887654321",
        "address": "hyderabad",
        "city": "kondapur",
        "state": "ts",
        "country": "Ind",
        "zipCode": "56787",
        "specilization": "efdg",
        "licence": "8677DGHFH"
    },
    "valid_info2": {
        "providername": "priya",
        "first_name": "vasundara",
        "last_name": "reddy",
        "mobile_number": "5677654321",
        "address": "Hyderabad",
        "zipCode": "87687",
        "licence": "8DGHFH"
    },
    "invalid": {
        "first_name": "@&vijaya",
        "last_name": "/$reddy",
        "nick_name": "*%vikky",
        "mobile_number": "98876653",
        "address": "hyd#2@",
        "city": "@hphb",
        "state": "@telanagana",
        "country": "---India",
        "zipCode": "567@#$",
        "specilization": "@%abcd",
        "licence": "%&>>>578DGHFH"
    }
}
